<svg width="47" height="47" viewBox="0 0 47 47" fill="none" xmlns="http://www.w3.org/2000/svg">
<path d="M3.13403 12.167C6.22361 6.81623 11.2122 2.98854 17.1809 1.38941C23.1495 -0.209894 29.3838 0.610913 34.7351 3.70024C40.0865 6.78974 43.9144 11.7779 45.5136 17.746C47.1131 23.7142 46.2921 29.948 43.2025 35.2988C40.1129 40.6496 35.1244 44.4773 29.1557 46.0764C27.1627 46.6104 25.1402 46.8746 23.1306 46.8746C19.1222 46.8745 15.1659 45.8234 11.6014 43.7654C6.25027 40.676 2.42227 35.6879 0.823017 29.7197C-0.776421 23.7516 0.0445446 17.5179 3.13403 12.167ZM3.14994 29.0964C4.58267 34.4431 8.0119 38.9117 12.8061 41.6795C17.6002 44.4471 23.1852 45.1823 28.5323 43.7496C33.8794 42.3169 38.3483 38.8881 41.1163 34.0943C43.8842 29.3007 44.6194 23.7161 43.1867 18.3694C41.754 13.0227 38.3247 8.55412 33.5306 5.78634C28.7364 3.01873 23.1512 2.28362 17.8045 3.71615C12.4575 5.14876 7.9883 8.57771 5.22048 13.3715C2.45256 18.1651 1.71712 23.7497 3.14994 29.0964Z" fill="#398DC9"/>
<path d="M18.1198 21.7271L30.6834 14.4739C31.4089 14.0553 32.2747 14.0553 33 14.4738C33.7252 14.8925 34.1582 15.6424 34.1582 16.4799V30.986C34.1582 31.8234 33.7252 32.5732 33 32.992C32.6374 33.2014 32.2397 33.306 31.8419 33.306C31.444 33.306 31.0461 33.2014 30.6836 32.992L18.1198 25.7389C17.3947 25.3203 16.9617 24.5703 16.9617 23.733C16.9617 22.8956 17.3947 22.1457 18.1198 21.7271ZM31.7492 30.8255V16.6402L19.4633 23.7328L31.7492 30.8255Z" fill="#398DC9"/>
<path d="M13.3828 14.44C14.048 14.44 14.5873 14.9794 14.5873 15.6445V31.8227C14.5873 32.4878 14.048 33.0272 13.3828 33.0272C12.7176 33.0272 12.1782 32.4879 12.1782 31.8227V15.6445C12.1782 14.9794 12.7176 14.44 13.3828 14.44Z" fill="#398DC9"/>
</svg>
